@startuml
title Projet Biblio - Diagramme de Classe

abstract class Ressource{
    codeUnique: int {key}
    titre: String
    auteur: String
    dateApparition: Date
    emplacements: String {localkey}
    etat: {neuf,bon,abîmé,perdu}
}

class Contributeur{
    nom: String
    prenom: String
    dateNaissance: Date
}
note "PK(nom,prenom,dateNaissance)" as PKContributeur
PKContributeur .. Contributeur

class Editeur{
    nom: String {key}
}

class Pays{
    nom: String {key}
}
Pays "1" -- "*" Contributeur : < est
Pays "1" -- "*" Editeur : < est

class Langue{
    nom: String {key}
}


class Livre{
    isbn: String{localkey}
    resume: String{localkey}
}
class Film{
    duree: int
    synopsis: String {localkey}
}
class EnregistrementAudio{
    duree: int
}
Ressource <|-- Livre
Ressource <|-- Film
Ressource <|-- EnregistrementAudio
Ressource "*" -- "1..*" Editeur : < édite
Livre "*" -- "1..*" Contributeur : < écrit
Livre "*" -- "1" Langue : > écrit en
Film "*" -- "1..*" Contributeur : < réalise
Film "*" -- "1..*" Contributeur : < joue
Film "*" -- "1..*" Langue : > audios
EnregistrementAudio "*" -- "1..*" Contributeur : < compose
EnregistrementAudio "*" -- "1..*" Contributeur : < interprète

abstract Personne{
    nom: String
    prenom: String
    adresse: String
    email: String {localkey}
    login: String {key}
    password: String
}
note "UNIQUE(nom,prenom,adresse)" as UniquePersonne
UniquePersonne .. Personne
class Adherent{
    dateNaissance: Date
    telephone: CHAR 10 {localkey}
}
Personne <|-- Administrateur
Personne <|-- Adherent
class Adhesion{
    dateDebut: Date
    dateFin: Date
}
Adherent "1" -- "1..*" Adhesion : > adhère

class Emprunt{
    dateEmprunt: Date
    duree: int
}
Emprunt "*" -- "1" Adherent
Emprunt "*" -- "1" Ressource

class Suspension{
    dateDebut: Date
    dateFin: Date
}
Suspension "*" -- "1" Adherent

@enduml
